Name,DeveloperName
"PRM_DiscountRebatesANI_A","compound"
"PRM_ExciseDutyEcotaxANI_A","compound"
"PRM_GTOANI_A","compound"
"PRM_MACOHLANI_A","compound"
"PRM_OffInvoicePromoDiscANI_A","compound"
"PRM_OffInvoicePromoDiscANIHL_A","compound"
"PRM_SelloutBase_A_RW","compound"
"PRM_SelloutIncr_A_RW","compound"
"PRM_SelloutTotal_A_RW","compound"
"PRM_VICANI_A","compound"
"PRM_VLCANI_A","compound"
