Name,ACCL__Aggregation_Rule__c,ACCL__Aggregation_Skipped_Dimensions__c,ACCL__Aggregation_Time_Rule__c,ACCL__Compound_Main__c,ACCL__Data_Source_Aggregation_Mode__c,ACCL__Data_Source_Measure_Code__c,ACCL__Data_Source_Monthly_Table_Name__c,ACCL__Data_Source_Table_Name__c,ACCL__Data_Source_Week_Offset__c,ACCL__Description_Language_1__c,ACCL__Description_Language_2__c,ACCL__Description_Language_3__c,ACCL__Description_Language_4__c,ACCL__Display_Enabled__c,ACCL__Display_Round__c,ACCL__Distribution_Order__c,ACCL__Distribution_Plan_Hierarchy_Dist_Type__c,ACCL__Distribution_Time_Hierarchy_Dist_Type__c,ACCL__Editable_Distribution_Type__c,ACCL__Editable_Edit_Mode__c,ACCL__Editable_Enable_Past_Weeks__c,ACCL__Editable_Measure_Code__c,ACCL__Editable_Storage_Level__c,ACCL__Formula__c,ACCL__Storage_Options_Measure_Code__c,ACCL__Storage_Options_Monthly_Table_Name__c,ACCL__Storage_Options_Storage_Levels__c,ACCL__Storage_Options_Table_Name__c,ACCL__Storage_Options_Writeback__c,ACCL__Total_Calculation_Cumulative__c,ACCL__Total_Calculation_Rule__c,ACCL__Value_Type__c,TPM_IndicativeFormula__c,TPM_StorageOptionsHerokuRoundDecimals__c,DeveloperName,ACCL__Distribution_Plan,ACCL__Distribution_Time,ACCL__Editable_Distribution__c,ACCL__Parent__c,SobjectType
"PRM_DiscountRebatesANI_A","sum","Tactic","formula","false","standard","","","","0.0","Disc. & Rebates (Act. Non-Inv.)","","","","true","2.0","","","","","week","false","","","(PRM_Discount_Rebates_Read,	PRM_SelloutTotal_A_RW)=>
{
let r=null;
r=(PRM_Discount_Rebates_Read*	PRM_SelloutTotal_A_RW);
return r;
}","DRTA","monthlypromotionmeasureresult","Product","weeklypromotionmeasureresult","false","off","sum","Money","","","calculated","","","","","ACCL__KPI_Definition__c"
"PRM_ExciseDutyEcotaxANI_A","sum","Tactic","formula","false","standard","","","","0.0","Excise duty & ecotax (Act. Non-Inv.)","","","","true","2.0","","","","","week","false","","","(PRM_ExciseDuty_Ecotax_Read,	PRM_SelloutTotal_A_RW)=>
{
let r=null;
r=(PRM_ExciseDuty_Ecotax_Read*	PRM_SelloutTotal_A_RW);
return r;
}","ADEA","monthlypromotionmeasureresult","Product","weeklypromotionmeasureresult","false","off","sum","Money","","","calculated","","","","","ACCL__KPI_Definition__c"
"PRM_GTOANI_A","sum","Tactic","formula","false","standard","","","","0.0","GTO (Act. Non-Inv.)","","","","true","2.0","","","","","week","false","","","(PRM_ListPrice_Read,		PRM_SelloutTotal_A_RW)=>
{
let r=null;
r=(PRM_ListPrice_Read*	PRM_SelloutTotal_A_RW);
return r;
}","GTOA","monthlypromotionmeasureresult","Product","weeklypromotionmeasureresult","false","off","sum","Money","","","calculated","","","","","ACCL__KPI_Definition__c"
"PRM_MACOHLANI_A","sum","Tactic","aggregate","false","standard","","","","0.0","MACO/HL (Act. Non-Inv.)","","","","true","2.0","","","","","week","false","","","(PRM_MACOANI_A,	PRM_SelloutTotal_A_RW)=> 
{ 
let r=null; 
if(	PRM_SelloutTotal_A_RW>0) 
{ 
r=(PRM_MACOANI_A/	PRM_SelloutTotal_A_RW); 
} 
return r; 
}","MAHA","monthlypromotionmeasureresult","Product","weeklypromotionmeasureresult","false","off","sum","Money","","","calculated","","","","","ACCL__KPI_Definition__c"
"PRM_OffInvoicePromoDiscANI_A","sum","","aggregate","false","standard","","","","0.0","Off-invoice Promo Disc (Act. Non-Inv.)","","","","true","2.0","","","","","week","false","","","(Tactic,	PRM_SelloutTotal_A_RW,PRM_Disc_to_Retail)=>
{
let r=0;
if(Tactic.paymentmethod==='OffInvoice')
{
r=(PRM_Disc_to_Retail*	PRM_SelloutTotal_A_RW);
}
else
{
r=0;
}
return r;
}","OFPD","monthlypromotionmeasureresult","Product","weeklypromotionmeasureresult","true","off","sum","Money","","","calculated","","","","","ACCL__KPI_Definition__c"
"PRM_OffInvoicePromoDiscANIHL_A","sum","","aggregate","false","standard","","","","0.0","Off-invoice Promo Disc (Act. Non-Inv.)/HL","","","","true","2.0","","","","","week","false","","","(PRM_OffInvoicePromoDiscANI_A,	PRM_SelloutTotal_A_RW)=>
{
 let r=null;
 if(PRM_SelloutTotal_A_RW<0)
{
  r=0;
return r;
}
else
{
 r=(PRM_OffInvoicePromoDiscANI_A)/(	PRM_SelloutTotal_A_RW);
return r;
}
}","OFPH","monthlypromotionmeasureresult","Product","weeklypromotionmeasureresult","false","off","sum","Money","","","calculated","","","","","ACCL__KPI_Definition__c"
"PRM_SelloutBase_A_RW","sum","Tactic","aggregate","false","standard","","","","0.0","Actual Sell-out Base","","","","true","2.0","PlanThenTime","equal","equal","metric","all","false","ASOB","inputlevel","(PRM_SelloutBase_A_R$Product$Total,PRM_SelloutWeek$Product$Total,PRM_SelloutWeek) => 
{ 
let r = (PRM_SelloutBase_A_R$Product$Total/PRM_SelloutWeek$Product$Total)*PRM_SelloutWeek; 
return r; 
}","","monthlypromotionmeasureresult","Product","weeklypromotionmeasureresult","false","off","sum","Volume","","","editable_calculated","","","","","ACCL__KPI_Definition__c"
"PRM_SelloutIncr_A_RW","sum","Tactic","aggregate","false","standard","","","","0.0","Actual Sell-out Incr.","","","","true","2.0","PlanThenTime","equal","equal","metric","all","false","ASOI","inputlevel","(PRM_SelloutIncr_A_R$Product$Total,PRM_SelloutWeek$Product$Total,PRM_SelloutWeek) => 
{ 
let r = (PRM_SelloutIncr_A_R$Product$Total/PRM_SelloutWeek$Product$Total)*PRM_SelloutWeek; 
return r; 
}","","monthlypromotionmeasureresult","Product","weeklypromotionmeasureresult","false","off","sum","None","","","editable_calculated","","","","","ACCL__KPI_Definition__c"
"PRM_SelloutTotal_A_RW","sum","Tactic","aggregate","false","standard","","","","0.0","Actual Sell-out Total","","","","true","2.0","PlanThenTime","equal","equal","metric","all","false","ASOT","inputlevel","(PRM_SelloutTotal_A_R$Product$Total,PRM_SelloutWeek$Product$Total,PRM_SelloutWeek) => 
{ 
let r = (PRM_SelloutTotal_A_R$Product$Total/PRM_SelloutWeek$Product$Total)*PRM_SelloutWeek; 
return r; 
}","","monthlypromotionmeasureresult","Product","weeklypromotionmeasureresult","false","off","sum","None","","","editable_calculated","","","","","ACCL__KPI_Definition__c"
"PRM_VICANI_A","sum","Tactic","aggregate","false","standard","","","","0.0","VIC (Act. Non-Inv.)","","","","true","2.0","","","","","week","false","","","(PRM_VIC_Read,	PRM_SelloutTotal_A_RW)=> 
{ 
let r=null; 
r=(PRM_VIC_Read * 	PRM_SelloutTotal_A_RW); 
return r; 
}","VICA","monthlypromotionmeasureresult","Product","weeklypromotionmeasureresult","false","off","sum","Money","","","calculated","","","","","ACCL__KPI_Definition__c"
"PRM_VLCANI_A","sum","Tactic","formula","false","standard","","","","0.0","VLC (Act. Non-Inv.)","","","","true","2.0","","","","","week","false","","","(PRM_VLC_Read,	PRM_SelloutTotal_A_RW)=>
{
let r=null;
r=(PRM_VLC_Read * 	PRM_SelloutTotal_A_RW);
return r;
}","VLCA","monthlypromotionmeasureresult","Product","weeklypromotionmeasureresult","false","off","sum","Money","","","calculated","","","","","ACCL__KPI_Definition__c"
