INDEX VERSION 1.127+C:\Users\renats.alejevs\tpm_abi_talend_rep\tpm_abi_talend_rep\workspace\.metadata\.plugins\org.eclipse.jdt.core
2137487290.index
3702989085.index
1727461691.index
1074630627.index
1642763313.index
3353734283.index
3056160309.index
1523691652.index
4104438550.index
3192409807.index
179494560.index
2211271353.index
1577546432.index
3321960240.index
