 ---=== Start Migration of project TPM_ABI ===---
 * Task [UpdateToJava8VersionMigrationTask] : Applied successfully
 * Task [Add Product Values] : Nothing to do
 * Task [UpdateGitIgnoreMigrationTask] : Nothing to do
 * Task [ChangeDriverJarForProjectSetting] : Nothing to do
 * Task [RepositoryProjectDate] : Applied successfully
 * Task [Fix a problem of project resources linked to items] : Nothing to do
 * Task [reset the 'COLUMN_DELIMITER' parameter] : Applied successfully
 * Task [Set the 'skip tailing zeros for BigDecimal' setting to false if it was null] : Applied successfully
 * Task [Configure the new INCLUDTRASHFILES property to 'true' in order to keep the same behavior as before] : Applied successfully
 * Task [NewJDBCMigrationTask] : Nothing to do
 * Task [NewMarkLogicMigrationTask] : Nothing to do
 * Task [NewGoogleDriveMigrationTask] : Nothing to do
 * Task [Dataprep701MigrationTask] : Applied successfully
 * Task [MigrationTaskFortOleDbCoseConnection] : Applied successfully
 * Task [Fill the default db version of mssql for Jobsetting] : Nothing to do
 * Task [ChangeTMatchGroupOutputConnectorTask] : Applied successfully
 * Task [NewJDBCConnectionMigrationTask] : Nothing to do
 * Task [DriverJarMigration] : Nothing to do
 * Task [AddSchemaDatePatternUseForImpalaTask] : Applied successfully
 * Task [GenerateJobPomMigrationTask] : Applied successfully
 * Task [TExtractJSONSplitListMigrationTask] : Applied successfully
 * Task [RenameParamName4tS3XXServerEncryption] : Applied successfully
 * Task [AddDefaultFTPSPortMigrationTask] : Applied successfully
 * Task [WriteJSONQuoteAllValuesMigrationTask] : Applied successfully
 * Task [FileInputPositionalByteLengthMigrationTask] : Applied successfully
 * Task [AutoUpdateRelationsMigrationTask] : Applied successfully
 ---=== End of migration ===---
